%YAML 1.1
%TAG !u! tag:unity3d.com,2011:
--- !u!114 &11400000
MonoBehaviour:
  m_ObjectHideFlags: 0
  m_PrefabParentObject: {fileID: 0}
  m_PrefabInternal: {fileID: 0}
  m_GameObject: {fileID: 0}
  m_Enabled: 1
  m_EditorHideFlags: 0
  m_Script: {fileID: 11500000, guid: c2f41a358c0aabe43834c1e9068be7c8, type: 3}
  m_Name: Hunting Bow
  m_EditorClassIdentifier: 
  name: Hunting Bow
  cost: 200
  rarity: 0
  type: 0
  icon: {fileID: 0}
  mobilityReduct: -8
  durability: 10
  damage: 50
  accuracy: 60
  weaponType: 0
