%YAML 1.1
%TAG !u! tag:unity3d.com,2011:
--- !u!114 &11400000
MonoBehaviour:
  m_ObjectHideFlags: 0
  m_PrefabParentObject: {fileID: 0}
  m_PrefabInternal: {fileID: 0}
  m_GameObject: {fileID: 0}
  m_Enabled: 1
  m_EditorHideFlags: 0
  m_Script: {fileID: 11500000, guid: cf89c88fdd6a98649ba6370e439c8e10, type: 3}
  m_Name: Sequence 19 Colchis Entrance
  m_EditorClassIdentifier: 
  dialogueEvent:
  - {fileID: 11400000, guid: 6b6ff1a948d8dac429c5c384419d01db, type: 2}
  EventConditions:
    inWorldLoc: 6
    inLocalLoc: 0
    ExtraConditions: 0
    NeedsExtraConditions: 0
