%YAML 1.1
%TAG !u! tag:unity3d.com,2011:
--- !u!114 &11400000
MonoBehaviour:
  m_ObjectHideFlags: 0
  m_PrefabParentObject: {fileID: 0}
  m_PrefabInternal: {fileID: 0}
  m_GameObject: {fileID: 0}
  m_Enabled: 1
  m_EditorHideFlags: 0
  m_Script: {fileID: 11500000, guid: b91a19a83633fb64a95cb1ee27982869, type: 3}
  m_Name: 11
  m_EditorClassIdentifier: 
  Name: Deneva
  Dialogue: You mean me? So what? Zeus can go take it out of his loins for all I care.
    What is he going to do? Swallow all the demi-gods? I say again Athena, I want
    nothing to do with you gods!
  isBlockText: 0
